{
	"info": {
		"_postman_id": "bf50dc89-2f91-48db-b240-5476d4a006f5",
		"name": "3-imtixon",
		"schema": "https://schema.getpostman.com/json/collection/v2.1.0/collection.json",
		"_exporter_id": "34654463"
	},
	"item": [
		{
			"name": "users",
			"item": [
				{
					"name": "Sign Up",
					"request": {
						"method": "POST",
						"header": [],
						"body": {
							"mode": "raw",
							"raw": "{\r\n    \"first_name\" : \"salomat\",\r\n    \"last_name\" : \"salomat\",\r\n    \"email\" : \"oybekrasulov244@gmail.com\",\r\n    \"username\":\"reydor08\",\r\n    \"password\":\"helloworld\",\r\n    \"confirmPassword\":\"helloworld\",\r\n    \"role\":\"admin\"\r\n\r\n}",
							"options": {
								"raw": {
									"language": "json"
								}
							}
						},
						"url": {
							"raw": "localhost:4000/auth/signup",
							"host": [
								"localhost"
							],
							"port": "4000",
							"path": [
								"auth",
								"signup"
							]
						}
					},
					"response": []
				},
				{
					"name": "Verify otp",
					"request": {
						"method": "POST",
						"header": [],
						"body": {
							"mode": "raw",
							"raw": "{\r\n    \"userId\": \"9fc902fa-5de4-4eaf-82c7-0fc265e594af\",\r\n    \"code\":\"5241\"\r\n}\r\n",
							"options": {
								"raw": {
									"language": "json"
								}
							}
						},
						"url": {
							"raw": "localhost:4000/auth/verify-otp",
							"host": [
								"localhost"
							],
							"port": "4000",
							"path": [
								"auth",
								"verify-otp"
							]
						}
					},
					"response": []
				},
				{
					"name": "Sign In",
					"request": {
						"method": "POST",
						"header": [],
						"body": {
							"mode": "raw",
							"raw": "{\r\n    \"email\" : \"oybekrasulov244@gmail.com\",\r\n    \"password\":\"helloworld\"\r\n}",
							"options": {
								"raw": {
									"language": "json"
								}
							}
						},
						"url": {
							"raw": "localhost:4000/auth/signin",
							"host": [
								"localhost"
							],
							"port": "4000",
							"path": [
								"auth",
								"signin"
							]
						}
					},
					"response": []
				},
				{
					"name": "Getme",
					"request": {
						"auth": {
							"type": "bearer",
							"bearer": [
								{
									"key": "token",
									"value": "eyJhbGciOiJIUzI1NiIsInR5cCI6IkpXVCJ9.eyJ1c2VySWQiOiI5ZmM5MDJmYS01ZGU0LTRlYWYtODJjNy0wZmMyNjVlNTk0YWYiLCJyb2xlIjoiYWRtaW4iLCJpYXQiOjE3MTg4NjkzMzAsImV4cCI6MTcxODg3MDIzMH0.P9K9YB-1eSQ6sTNqYSmDaSMPm-zHl_52kis1Yny657s",
									"type": "string"
								}
							]
						},
						"method": "GET",
						"header": [],
						"url": {
							"raw": "localhost:4000/auth/getme",
							"host": [
								"localhost"
							],
							"port": "4000",
							"path": [
								"auth",
								"getme"
							]
						}
					},
					"response": []
				},
				{
					"name": "Refresh token",
					"request": {
						"method": "POST",
						"header": [],
						"body": {
							"mode": "raw",
							"raw": "{\r\n    \"email\":\"oybekrasulov244@gmail.com\"\r\n}",
							"options": {
								"raw": {
									"language": "json"
								}
							}
						},
						"url": {
							"raw": "localhost:4000/auth/refresh-token",
							"host": [
								"localhost"
							],
							"port": "4000",
							"path": [
								"auth",
								"refresh-token"
							]
						}
					},
					"response": []
				}
			]
		},
		{
			"name": "Products",
			"item": [
				{
					"name": "Create Product",
					"request": {
						"auth": {
							"type": "bearer",
							"bearer": [
								{
									"key": "token",
									"value": "eyJhbGciOiJIUzI1NiIsInR5cCI6IkpXVCJ9.eyJ1c2VySWQiOiI5ZmM5MDJmYS01ZGU0LTRlYWYtODJjNy0wZmMyNjVlNTk0YWYiLCJyb2xlIjoiYWRtaW4iLCJpYXQiOjE3MTg4OTQ4MTQsImV4cCI6MTcxODg5NTcxNH0.npCr_vOZDwyvhsYcvGiDq_oq-8a0-QevRDGC8klusIA",
									"type": "string"
								}
							]
						},
						"method": "POST",
						"header": [],
						"body": {
							"mode": "raw",
							"raw": "{\r\n    \"name\" : \"Fuse Tea\",\r\n    \"description\" : \"This is the best water in teatic woters\",\r\n    \"category\" : \"Water\",\r\n    \"price\":5500\r\n}",
							"options": {
								"raw": {
									"language": "json"
								}
							}
						},
						"url": {
							"raw": "localhost:4000/api/product/create",
							"host": [
								"localhost"
							],
							"port": "4000",
							"path": [
								"api",
								"product",
								"create"
							]
						}
					},
					"response": []
				},
				{
					"name": "Get All Products",
					"request": {
						"auth": {
							"type": "bearer",
							"bearer": [
								{
									"key": "token",
									"value": "eyJhbGciOiJIUzI1NiIsInR5cCI6IkpXVCJ9.eyJ1c2VySWQiOiI5ZmM5MDJmYS01ZGU0LTRlYWYtODJjNy0wZmMyNjVlNTk0YWYiLCJyb2xlIjoiYWRtaW4iLCJpYXQiOjE3MTg4OTEyOTcsImV4cCI6MTcxODk0NTI5N30.K6a1nIuXHD7HKLf4Yw89aSbJRw8RrfgzQBHTmn1St5g",
									"type": "string"
								}
							]
						},
						"method": "GET",
						"header": [],
						"url": {
							"raw": "localhost:4000/api/product/",
							"host": [
								"localhost"
							],
							"port": "4000",
							"path": [
								"api",
								"product",
								""
							]
						}
					},
					"response": []
				},
				{
					"name": "Get Product By Id",
					"request": {
						"auth": {
							"type": "bearer",
							"bearer": [
								{
									"key": "token",
									"value": "eyJhbGciOiJIUzI1NiIsInR5cCI6IkpXVCJ9.eyJ1c2VySWQiOiI5ZmM5MDJmYS01ZGU0LTRlYWYtODJjNy0wZmMyNjVlNTk0YWYiLCJyb2xlIjoiYWRtaW4iLCJpYXQiOjE3MTg4OTEyOTcsImV4cCI6MTcxODk0NTI5N30.K6a1nIuXHD7HKLf4Yw89aSbJRw8RrfgzQBHTmn1St5g",
									"type": "string"
								}
							]
						},
						"method": "GET",
						"header": [],
						"url": {
							"raw": "localhost:4000/api/product/53652de8-152c-4190-a62d-fbcf3ff83d13",
							"host": [
								"localhost"
							],
							"port": "4000",
							"path": [
								"api",
								"product",
								"53652de8-152c-4190-a62d-fbcf3ff83d13"
							]
						}
					},
					"response": []
				},
				{
					"name": "Update Product",
					"request": {
						"auth": {
							"type": "bearer",
							"bearer": [
								{
									"key": "token",
									"value": "eyJhbGciOiJIUzI1NiIsInR5cCI6IkpXVCJ9.eyJ1c2VySWQiOiI5ZmM5MDJmYS01ZGU0LTRlYWYtODJjNy0wZmMyNjVlNTk0YWYiLCJyb2xlIjoiYWRtaW4iLCJpYXQiOjE3MTg4OTEyOTcsImV4cCI6MTcxODk0NTI5N30.K6a1nIuXHD7HKLf4Yw89aSbJRw8RrfgzQBHTmn1St5g",
									"type": "string"
								}
							]
						},
						"method": "PUT",
						"header": [],
						"url": {
							"raw": "localhost:4000/api/product/53652de8-152c-4190-a62d-fbcf3ff83d13",
							"host": [
								"localhost"
							],
							"port": "4000",
							"path": [
								"api",
								"product",
								"53652de8-152c-4190-a62d-fbcf3ff83d13"
							]
						}
					},
					"response": []
				},
				{
					"name": "Delete Product",
					"request": {
						"auth": {
							"type": "bearer",
							"bearer": [
								{
									"key": "token",
									"value": "eyJhbGciOiJIUzI1NiIsInR5cCI6IkpXVCJ9.eyJ1c2VySWQiOiI5ZmM5MDJmYS01ZGU0LTRlYWYtODJjNy0wZmMyNjVlNTk0YWYiLCJyb2xlIjoiYWRtaW4iLCJpYXQiOjE3MTg4OTEyOTcsImV4cCI6MTcxODk0NTI5N30.K6a1nIuXHD7HKLf4Yw89aSbJRw8RrfgzQBHTmn1St5g",
									"type": "string"
								}
							]
						},
						"method": "DELETE",
						"header": [],
						"url": {
							"raw": "localhost:4000/api/product/53652de8-152c-4190-a62d-fbcf3ff83d13",
							"host": [
								"localhost"
							],
							"port": "4000",
							"path": [
								"api",
								"product",
								"53652de8-152c-4190-a62d-fbcf3ff83d13"
							]
						}
					},
					"response": []
				}
			]
		},
		{
			"name": "Rewievs",
			"item": [
				{
					"name": "Get All Reviews",
					"request": {
						"auth": {
							"type": "bearer",
							"bearer": [
								{
									"key": "token",
									"value": "eyJhbGciOiJIUzI1NiIsInR5cCI6IkpXVCJ9.eyJ1c2VySWQiOiI5ZmM5MDJmYS01ZGU0LTRlYWYtODJjNy0wZmMyNjVlNTk0YWYiLCJyb2xlIjoiYWRtaW4iLCJpYXQiOjE3MTg4OTEyOTcsImV4cCI6MTcxODk0NTI5N30.K6a1nIuXHD7HKLf4Yw89aSbJRw8RrfgzQBHTmn1St5g",
									"type": "string"
								}
							]
						},
						"method": "GET",
						"header": [],
						"url": {
							"raw": "localhost:4000/api/review/",
							"host": [
								"localhost"
							],
							"port": "4000",
							"path": [
								"api",
								"review",
								""
							]
						}
					},
					"response": []
				},
				{
					"name": "Create Rewiev",
					"request": {
						"auth": {
							"type": "bearer",
							"bearer": [
								{
									"key": "token",
									"value": "eyJhbGciOiJIUzI1NiIsInR5cCI6IkpXVCJ9.eyJ1c2VySWQiOiI5ZmM5MDJmYS01ZGU0LTRlYWYtODJjNy0wZmMyNjVlNTk0YWYiLCJyb2xlIjoiYWRtaW4iLCJpYXQiOjE3MTg4OTEyOTcsImV4cCI6MTcxODk0NTI5N30.K6a1nIuXHD7HKLf4Yw89aSbJRw8RrfgzQBHTmn1St5g",
									"type": "string"
								}
							]
						},
						"method": "POST",
						"header": [],
						"body": {
							"mode": "raw",
							"raw": "{\r\n    \"product_id\" : \"4958a374-0814-451c-8d72-60704f7ee37a\",\r\n    \"rating\":5,\r\n    \"context\":\"Good\"\r\n}",
							"options": {
								"raw": {
									"language": "json"
								}
							}
						},
						"url": {
							"raw": "localhost:4000/api/review/create",
							"host": [
								"localhost"
							],
							"port": "4000",
							"path": [
								"api",
								"review",
								"create"
							]
						}
					},
					"response": []
				},
				{
					"name": "Get Review By Id",
					"request": {
						"auth": {
							"type": "bearer",
							"bearer": [
								{
									"key": "token",
									"value": "eyJhbGciOiJIUzI1NiIsInR5cCI6IkpXVCJ9.eyJ1c2VySWQiOiI5ZmM5MDJmYS01ZGU0LTRlYWYtODJjNy0wZmMyNjVlNTk0YWYiLCJyb2xlIjoiYWRtaW4iLCJpYXQiOjE3MTg4OTQ4MTQsImV4cCI6MTcxODg5NTcxNH0.npCr_vOZDwyvhsYcvGiDq_oq-8a0-QevRDGC8klusIA",
									"type": "string"
								}
							]
						},
						"method": "GET",
						"header": [],
						"url": {
							"raw": "localhost:4000/api/review/661a8059-16be-4d32-87ad-ac78d87f8355",
							"host": [
								"localhost"
							],
							"port": "4000",
							"path": [
								"api",
								"review",
								"661a8059-16be-4d32-87ad-ac78d87f8355"
							]
						}
					},
					"response": []
				},
				{
					"name": "Delete Review",
					"request": {
						"auth": {
							"type": "bearer",
							"bearer": [
								{
									"key": "token",
									"value": "eyJhbGciOiJIUzI1NiIsInR5cCI6IkpXVCJ9.eyJ1c2VySWQiOiI5ZmM5MDJmYS01ZGU0LTRlYWYtODJjNy0wZmMyNjVlNTk0YWYiLCJyb2xlIjoiYWRtaW4iLCJpYXQiOjE3MTg4OTYwMDEsImV4cCI6MTcxODg5NjkwMX0.g9oEgOYszOZYFAcuNBKMBxNbXv5a7X-ac0OwA6M0ID4",
									"type": "string"
								}
							]
						},
						"method": "DELETE",
						"header": [],
						"url": {
							"raw": "localhost:4000/api/review/2c4c5c6e-86c0-4ac1-92fe-531eab943e1e",
							"host": [
								"localhost"
							],
							"port": "4000",
							"path": [
								"api",
								"review",
								"2c4c5c6e-86c0-4ac1-92fe-531eab943e1e"
							]
						}
					},
					"response": []
				},
				{
					"name": "Update Rewiev",
					"request": {
						"method": "PUT",
						"header": [],
						"url": {
							"raw": "localhost:4000/api/review/2c4c5c6e-86c0-4ac1-92fe-531eab943e1e",
							"host": [
								"localhost"
							],
							"port": "4000",
							"path": [
								"api",
								"review",
								"2c4c5c6e-86c0-4ac1-92fe-531eab943e1e"
							]
						}
					},
					"response": []
				}
			]
		}
	]
}